…
## Features
* Obtain map with certain region breakdown
```r
state_map <- us_map(regions = "states")
```
<details>
  <summary><code>state_map</code></summary>

  ```r
  #> Simple feature collection with 51 features and 3 fields
  #> Geometry type: MULTIPOLYGON
  #> Dimension:     XY
  #> Bounding box:  xmin: -2590847 ymin: -2608148 xmax: 2523581 ymax: 731407.9
  #> Projected CRS: NAD27 / US National Atlas Equal Area
  #> # A tibble: 51 × 4
  #>    fips  abbr  full                               geom
  #>    <chr> <chr> <chr>                <MULTIPOLYGON [m]>
  #>  1 02    AK    Alaska        (((-2396847 -2547721, -2…
  #>  2 01    AL    Alabama       (((1093777 -1378535, 109…
  #>  3 05    AR    Arkansas      (((483065.2 -927788.2, 5…
  #>  4 04    AZ    Arizona       (((-1388676 -1254584, -1…
  #>  5 06    CA    California    (((-1719946 -1090033, -1…
  #>  6 08    CO    Colorado      (((-789538.7 -678773.8, …
  #>  7 09    CT    Connecticut   (((2161733 -83737.52, 21…
  #>  8 11    DC    District of … (((1955479 -402055.2, 19…
  #>  9 10    DE    Delaware      (((2042506 -284367.3, 20…
  #> 10 12    FL    Florida       (((1855611 -2064809, 186…
  #> # ℹ 41 more rows
  ```
</details><br>

```r
county_map <- us_map(regions = "counties")
```
<details>
  <summary><code>county_map</code></summary>

  ```r
  #> Simple feature collection with 3144 features and 4 fields
  #> Geometry type: MULTIPOLYGON
  #> Dimension:     XY
  #> Bounding box:  xmin: -2590847 ymin: -2608148 xmax: 2523581 ymax: 731407.9
  #> Projected CRS: NAD27 / US National Atlas Equal Area
  #> # A tibble: 3,144 × 5
  #> fips  abbr  full   county                      geom
  #> <chr> <chr> <chr>  <chr>         <MULTIPOLYGON [m]>
  #> 1 02013 AK    Alaska Aleut… (((-1762715 -2477334, -1…
  #> 2 02016 AK    Alaska Aleut… (((-2396847 -2547721, -2…
  #> 3 02020 AK    Alaska Ancho… (((-1517576 -2089908, -1…
  #> 4 02050 AK    Alaska Bethe… (((-1905141 -2137046, -1…
  #> 5 02060 AK    Alaska Brist… (((-1685825 -2253496, -1…
  #> 6 02063 AK    Alaska Chuga… (((-1476669 -2101298, -1…
  #> 7 02066 AK    Alaska Coppe… (((-1457015 -2063407, -1…
  #> 8 02068 AK    Alaska Denal… (((-1585793 -1980740, -1…
  #> 9 02070 AK    Alaska Dilli… (((-1793024 -2236835, -1…
  #> 10 02090 AK    Alaska Fairb… (((-1512363 -1851013, -1…
  #> # ℹ 3,134 more rows
  ```
…
