…
> 
> observation <- create_observation(
+   L0_flat = flat, 
+   observation_id = "observation_id", 
+   event_id = "event_id", 
+   package_id = "package_id",
+   location_id = "location_id", 
+   datetime = "datetime", 
+   taxon_id = "taxon_id", 
+   variable_name = "variable_name",
+   value = "value",
+   unit = "unit")
> 
> observation
# A tibble: 2,931 × 9
   observation_id event…¹ packa…² locat…³ datetime   taxon…⁴ varia…⁵ value unit 
   <chr>          <chr>   <chr>   <chr>   <date>     <chr>   <chr>   <dbl> <chr>
 1 1              1       edi.19… 4       2003-06-01 1       abunda…     2 numb…
 2 2              1       edi.19… 4       2003-06-01 2       abunda…     2 numb…
 3 3              1       edi.19… 4       2003-06-01 53      abunda…     1 numb…
 4 4              1       edi.19… 4       2003-06-01 2       abunda…     2 numb…
 5 5              1       edi.19… 4       2003-06-01 2       abunda…     1 numb…
 6 6              1       edi.19… 4       2003-06-01 8       abunda…     1 numb…
 7 7              1       edi.19… 4       2003-06-01 24      abunda…     1 numb…
 8 8              1       edi.19… 4       2003-06-01 42      abunda…     1 numb…
 9 9              1       edi.19… 4       2003-06-01 53      abunda…     1 numb…
10 10             1       edi.19… 4       2003-06-01 1       abunda…     1 numb…
# … with 2,921 more rows, and abbreviated variable names ¹​event_id,
#   ²​package_id, ³​location_id, ⁴​taxon_id, ⁵​variable_name
…
> ### Name: create_observation_ancillary
> ### Title: Create the observation_ancillary table
> ### Aliases: create_observation_ancillary
> 
> ### ** Examples
> 
> flat <- ants_L0_flat
> 
> observation_ancillary <- create_observation_ancillary(
+   L0_flat = flat,
+   observation_id = "observation_id", 
+   variable_name = c("trap.type", "trap.num", "moose.cage"))
> 
> observation_ancillary
# A tibble: 8,793 × 5
   observation_ancillary_id observation_id variable_name value  unit 
   <chr>                    <chr>          <chr>         <chr>  <chr>
 1 1                        1              trap.type     bait   <NA> 
 2 2                        1              trap.num      1 hour <NA> 
 3 3                        1              moose.cage    <NA>   <NA> 
 4 4                        2              trap.type     bait   <NA> 
 5 5                        2              trap.num      1 hour <NA> 
 6 6                        2              moose.cage    <NA>   <NA> 
 7 7                        3              trap.type     bait   <NA> 
 8 8                        3              trap.num      1 hour <NA> 
 9 9                        3              moose.cage    <NA>   <NA> 
10 10                       4              trap.type     bait   <NA> 
# … with 8,783 more rows
…
> 
> ### ** Examples
> 
> flat <- ants_L0_flat
> 
> taxon <- create_taxon(
+   L0_flat = flat, 
+   taxon_id = "taxon_id", 
+   taxon_rank = "taxon_rank", 
+   taxon_name = "taxon_name", 
+   authority_system = "authority_system", 
+   authority_taxon_id = "authority_taxon_id")
> 
> taxon
# A tibble: 53 × 5
   taxon_id taxon_rank taxon_name                 authority_system authority_t…¹
   <chr>    <chr>      <chr>                      <chr>            <chr>        
 1 1        Species    Aphaenogaster fulva        ITIS             578383       
 2 2        Species    Aphaenogaster picea        ITIS             578440       
 3 3        Species    Camponotus chromaiodes     ITIS             575766       
 4 4        Species    Camponotus herculeanus     ITIS             575995       
 5 5        Species    Camponotus nearcticus      ITIS             576193       
 6 6        Species    Camponotus novaeboracensis ITIS             685607       
 7 7        Species    Camponotus pennsylvanica   ITIS             154198       
 8 8        Species    Camponotus pennsylvanicus  ITIS             154198       
 9 9        Species    Crematogaster lineolata    ITIS             579090       
10 10       Species    Formica argentea           ITIS             576688       
# … with 43 more rows, and abbreviated variable name ¹​authority_taxon_id
…
> 
> flat <- ants_L0_flat
> 
> taxon_ancillary <- create_taxon_ancillary(
+   L0_flat = flat,
+   taxon_id = "taxon_id",
+   variable_name = c(
+     "subfamily", "hl", "rel", "rll", "colony.size", 
+     "feeding.preference", "nest.substrate", "primary.habitat", 
+     "secondary.habitat", "seed.disperser", "slavemaker.sp", 
+     "behavior", "biogeographic.affinity", "source"),
+   unit = c("unit_hl", "unit_rel", "unit_rll"))
> 
> taxon_ancillary
# A tibble: 742 × 7
   taxon_ancillary_id taxon_id datetime variable_name      value    unit  author
   <chr>              <chr>    <chr>    <chr>              <chr>    <chr> <chr> 
 1 1                  1        <NA>     subfamily          Myrmici… <NA>  <NA>  
 2 2                  1        <NA>     hl                 1.1582   mill… <NA>  
 3 3                  1        <NA>     rel                0.17268… mill… <NA>  
 4 4                  1        <NA>     rll                1.32377… mill… <NA>  
 5 5                  1        <NA>     colony.size        Medium   <NA>  <NA>  
 6 6                  1        <NA>     feeding.preference Granivo… <NA>  <NA>  
 7 7                  1        <NA>     nest.substrate     Wood     <NA>  <NA>  
 8 8                  1        <NA>     primary.habitat    Open     <NA>  <NA>  
 9 9                  1        <NA>     secondary.habitat  Wet      <NA>  <NA>  
10 10                 1        <NA>     seed.disperser     Y        <NA>  <NA>  
# … with 732 more rows
…
> nameEx("flatten_data")
> ### * flatten_data
> 
> flush(stderr()); flush(stdout())
> 
> ### Name: flatten_data
> ### Title: Flatten a dataset
> ### Aliases: flatten_data
> 
> ### ** Examples
> 
> # Flatten a dataset object
> flat <- flatten_data(ants_L1)
> flat
# A tibble: 2,931 × 46
   observation_id event…¹ datetime   varia…² value unit  trap.…³ trap.…⁴ moose…⁵
   <chr>          <chr>   <date>     <chr>   <dbl> <chr> <chr>   <chr>   <chr>  
 1 1              1       2003-06-01 abunda…     2 numb… bait    1 hour  <NA>   
 2 2              1       2003-06-01 abunda…     2 numb… bait    1 hour  <NA>   
 3 3              1       2003-06-01 abunda…     1 numb… bait    1 hour  <NA>   
 4 4              1       2003-06-01 abunda…     2 numb… bait    15 min… <NA>   
 5 5              1       2003-06-01 abunda…     1 numb… hand    <NA>    <NA>   
 6 6              1       2003-06-01 abunda…     1 numb… hand    <NA>    <NA>   
 7 7              1       2003-06-01 abunda…     1 numb… hand    <NA>    <NA>   
 8 8              1       2003-06-01 abunda…     1 numb… hand    <NA>    <NA>   
 9 9              1       2003-06-01 abunda…     1 numb… hand    <NA>    <NA>   
10 10             1       2003-06-01 abunda…     1 numb… litter  1       <NA>   
# … with 2,921 more rows, 37 more variables: location_id <chr>,
#   location_name <chr>, block <chr>, plot <chr>, latitude <dbl>,
#   longitude <dbl>, elevation <dbl>, treatment <chr>, taxon_id <chr>,
#   taxon_rank <chr>, taxon_name <chr>, authority_system <chr>,
#   authority_taxon_id <chr>, behavior <chr>, biogeographic.affinity <chr>,
#   colony.size <chr>, feeding.preference <chr>, hl <dbl>, unit_hl <chr>,
#   nest.substrate <chr>, primary.habitat <chr>, rel <dbl>, unit_rel <chr>, …
> 
> # Flatten a list of tables
> tables <- ants_L1$tables
> flat <- flatten_data(tables)
> flat
# A tibble: 2,931 × 46
   observation_id event…¹ datetime   varia…² value unit  trap.…³ trap.…⁴ moose…⁵
   <chr>          <chr>   <date>     <chr>   <dbl> <chr> <chr>   <chr>   <chr>  
 1 1              1       2003-06-01 abunda…     2 numb… bait    1 hour  <NA>   
 2 2              1       2003-06-01 abunda…     2 numb… bait    1 hour  <NA>   
 3 3              1       2003-06-01 abunda…     1 numb… bait    1 hour  <NA>   
 4 4              1       2003-06-01 abunda…     2 numb… bait    15 min… <NA>   
 5 5              1       2003-06-01 abunda…     1 numb… hand    <NA>    <NA>   
 6 6              1       2003-06-01 abunda…     1 numb… hand    <NA>    <NA>   
 7 7              1       2003-06-01 abunda…     1 numb… hand    <NA>    <NA>   
 8 8              1       2003-06-01 abunda…     1 numb… hand    <NA>    <NA>   
 9 9              1       2003-06-01 abunda…     1 numb… hand    <NA>    <NA>   
10 10             1       2003-06-01 abunda…     1 numb… litter  1       <NA>   
# … with 2,921 more rows, 37 more variables: location_id <chr>,
#   location_name <chr>, block <chr>, plot <chr>, latitude <dbl>,
#   longitude <dbl>, elevation <dbl>, treatment <chr>, taxon_id <chr>,
#   taxon_rank <chr>, taxon_name <chr>, authority_system <chr>,
#   authority_taxon_id <chr>, behavior <chr>, biogeographic.affinity <chr>,
#   colony.size <chr>, feeding.preference <chr>, hl <dbl>, unit_hl <chr>,
#   nest.substrate <chr>, primary.habitat <chr>, rel <dbl>, unit_rel <chr>, …
…
